Basic Bivariate Statistical Tests
…
]]
---
class: split-40
count: false
.column[.content[

```r
set.seed(2019)  
*gapminder
```
]]
.column[.content[

```
# A tibble: 1,704 x 6
   country     continent  year lifeExp      pop gdpPercap
   <fct>       <fct>     <int>   <dbl>    <int>     <dbl>
 1 Afghanistan Asia       1952    28.8  8425333      779.
 2 Afghanistan Asia       1957    30.3  9240934      821.
 3 Afghanistan Asia       1962    32.0 10267083      853.
 4 Afghanistan Asia       1967    34.0 11537966      836.
 5 Afghanistan Asia       1972    36.1 13079460      740.
 6 Afghanistan Asia       1977    38.4 14880372      786.
 7 Afghanistan Asia       1982    39.9 12881816      978.
 8 Afghanistan Asia       1987    40.8 13867957      852.
 9 Afghanistan Asia       1992    41.7 16317921      649.
10 Afghanistan Asia       1997    41.8 22227415      635.
# … with 1,694 more rows
```
…
```r
set.seed(2019)  
gapminder %>%  
* filter(year == 2007)   #
```
]]
.column[.content[

```
# A tibble: 142 x 6
   country     continent  year lifeExp       pop gdpPercap
   <fct>       <fct>     <int>   <dbl>     <int>     <dbl>
 1 Afghanistan Asia       2007    43.8  31889923      975.
 2 Albania     Europe     2007    76.4   3600523     5937.
 3 Algeria     Africa     2007    72.3  33333216     6223.
 4 Angola      Africa     2007    42.7  12420476     4797.
 5 Argentina   Americas   2007    75.3  40301927    12779.
 6 Australia   Oceania    2007    81.2  20434176    34435.
 7 Austria     Europe     2007    79.8   8199783    36126.
 8 Bahrain     Asia       2007    75.6    708573    29796.
 9 Bangladesh  Asia       2007    64.1 150448339     1391.
10 Belgium     Europe     2007    79.4  10392226    33693.
# … with 132 more rows
```
…
```r
set.seed(2019)  
gapminder %>%  
  filter(year == 2007) %>%  #
* filter(continent != "Oceania")
```
]]
.column[.content[

```
# A tibble: 140 x 6
   country     continent  year lifeExp       pop gdpPercap
   <fct>       <fct>     <int>   <dbl>     <int>     <dbl>
 1 Afghanistan Asia       2007    43.8  31889923      975.
 2 Albania     Europe     2007    76.4   3600523     5937.
 3 Algeria     Africa     2007    72.3  33333216     6223.
 4 Angola      Africa     2007    42.7  12420476     4797.
 5 Argentina   Americas   2007    75.3  40301927    12779.
 6 Austria     Europe     2007    79.8   8199783    36126.
 7 Bahrain     Asia       2007    75.6    708573    29796.
 8 Bangladesh  Asia       2007    64.1 150448339     1391.
 9 Belgium     Europe     2007    79.4  10392226    33693.
10 Benin       Africa     2007    56.7   8078314     1441.
# … with 130 more rows
```
…
```r
set.seed(2019)  
gapminder %>%  
  filter(year == 2007) %>%  #
  filter(continent != "Oceania") %>%  
* mutate(continent = factor(continent))
```
]]
.column[.content[

```
# A tibble: 140 x 6
   country     continent  year lifeExp       pop gdpPercap
   <fct>       <fct>     <int>   <dbl>     <int>     <dbl>
 1 Afghanistan Asia       2007    43.8  31889923      975.
 2 Albania     Europe     2007    76.4   3600523     5937.
 3 Algeria     Africa     2007    72.3  33333216     6223.
 4 Angola      Africa     2007    42.7  12420476     4797.
 5 Argentina   Americas   2007    75.3  40301927    12779.
 6 Austria     Europe     2007    79.8   8199783    36126.
 7 Bahrain     Asia       2007    75.6    708573    29796.
 8 Bangladesh  Asia       2007    64.1 150448339     1391.
 9 Belgium     Europe     2007    79.4  10392226    33693.
10 Benin       Africa     2007    56.7   8078314     1441.
# … with 130 more rows
```
…
```
# A tibble: 140 x 7
   country     continent  year lifeExp       pop gdpPercap high_income    
   <fct>       <fct>     <int>   <dbl>     <int>     <dbl> <chr>          
 1 Afghanistan Asia       2007    43.8  31889923      975. not high income
 2 Albania     Europe     2007    76.4   3600523     5937. not high income
 3 Algeria     Africa     2007    72.3  33333216     6223. not high income
 4 Angola      Africa     2007    42.7  12420476     4797. not high income
 5 Argentina   Americas   2007    75.3  40301927    12779. not high income
 6 Austria     Europe     2007    79.8   8199783    36126. high income    
 7 Bahrain     Asia       2007    75.6    708573    29796. high income    
 8 Bangladesh  Asia       2007    64.1 150448339     1391. not high income
 9 Belgium     Europe     2007    79.4  10392226    33693. high income    
10 Benin       Africa     2007    56.7   8078314     1441. not high income
# … with 130 more rows
```
…
```
# A tibble: 140 x 8
   country    continent  year lifeExp      pop gdpPercap high_income    europe  
   <fct>      <fct>     <int>   <dbl>    <int>     <dbl> <chr>          <chr>   
 1 Afghanist… Asia       2007    43.8   3.19e7      975. not high inco… not Eur…
 2 Albania    Europe     2007    76.4   3.60e6     5937. not high inco… Europe  
 3 Algeria    Africa     2007    72.3   3.33e7     6223. not high inco… not Eur…
 4 Angola     Africa     2007    42.7   1.24e7     4797. not high inco… not Eur…
 5 Argentina  Americas   2007    75.3   4.03e7    12779. not high inco… not Eur…
 6 Austria    Europe     2007    79.8   8.20e6    36126. high income    Europe  
 7 Bahrain    Asia       2007    75.6   7.09e5    29796. high income    not Eur…
 8 Bangladesh Asia       2007    64.1   1.50e8     1391. not high inco… not Eur…
 9 Belgium    Europe     2007    79.4   1.04e7    33693. high income    Europe  
10 Benin      Africa     2007    56.7   8.08e6     1441. not high inco… not Eur…
# … with 130 more rows
```
…
```
# A tibble: 140 x 9
   country continent  year lifeExp    pop gdpPercap high_income europe
   <fct>   <fct>     <int>   <dbl>  <int>     <dbl> <chr>       <chr> 
 1 Afghan… Asia       2007    43.8 3.19e7      975. not high i… not E…
 2 Albania Europe     2007    76.4 3.60e6     5937. not high i… Europe
 3 Algeria Africa     2007    72.3 3.33e7     6223. not high i… not E…
 4 Angola  Africa     2007    42.7 1.24e7     4797. not high i… not E…
 5 Argent… Americas   2007    75.3 4.03e7    12779. not high i… not E…
 6 Austria Europe     2007    79.8 8.20e6    36126. high income Europe
 7 Bahrain Asia       2007    75.6 7.09e5    29796. high income not E…
 8 Bangla… Asia       2007    64.1 1.50e8     1391. not high i… not E…
 9 Belgium Europe     2007    79.4 1.04e7    33693. high income Europe
10 Benin   Africa     2007    56.7 8.08e6     1441. not high i… not E…
# … with 130 more rows, and 1 more variable: gdppercap_log10 <dbl>
```
…
```
# A tibble: 50 x 9
   country continent  year lifeExp    pop gdpPercap high_income europe
   <fct>   <fct>     <int>   <dbl>  <int>     <dbl> <chr>       <chr> 
 1 Colomb… Americas   2007    72.9 4.42e7     7007. not high i… not E…
 2 Tanzan… Africa     2007    52.5 3.81e7     1107. not high i… not E…
 3 Korea,… Asia       2007    67.3 2.33e7     1593. not high i… not E…
 4 Burundi Africa     2007    49.6 8.39e6      430. not high i… not E…
 5 Sudan   Africa     2007    58.6 4.23e7     2602. not high i… not E…
 6 Iraq    Asia       2007    59.5 2.75e7     4471. not high i… not E…
 7 Camero… Africa     2007    50.4 1.77e7     2042. not high i… not E…
 8 Comoros Africa     2007    65.2 7.11e5      986. not high i… not E…
 9 Slovak… Europe     2007    74.7 5.45e6    18678. high income Europe
10 Lebanon Asia       2007    72.0 3.92e6    10461. not high i… not E…
# … with 40 more rows, and 1 more variable: gdppercap_log10 <dbl>
```
…
---

class: split-40
count: false
.column[.content[

```r
*gm07_sample_50
```
]]
.column[.content[

```
# A tibble: 50 x 9
   country continent  year lifeExp    pop gdpPercap high_income europe
   <fct>   <fct>     <int>   <dbl>  <int>     <dbl> <chr>       <chr> 
 1 Colomb… Americas   2007    72.9 4.42e7     7007. not high i… not E…
 2 Tanzan… Africa     2007    52.5 3.81e7     1107. not high i… not E…
 3 Korea,… Asia       2007    67.3 2.33e7     1593. not high i… not E…
 4 Burundi Africa     2007    49.6 8.39e6      430. not high i… not E…
 5 Sudan   Africa     2007    58.6 4.23e7     2602. not high i… not E…
 6 Iraq    Asia       2007    59.5 2.75e7     4471. not high i… not E…
 7 Camero… Africa     2007    50.4 1.77e7     2042. not high i… not E…
 8 Comoros Africa     2007    65.2 7.11e5      986. not high i… not E…
 9 Slovak… Europe     2007    74.7 5.45e6    18678. high income Europe
10 Lebanon Asia       2007    72.0 3.92e6    10461. not high i… not E…
# … with 40 more rows, and 1 more variable: gdppercap_log10 <dbl>
```
…
	Pearson's product-moment correlation

data:  gm07_sample_50$gdppercap_log10 and gm07_sample_50$lifeExp
t = 14.437, df = 48, p-value < 2.2e-16
alternative hypothesis: true correlation is not equal to 0
95 percent confidence interval:
 0.8320019 0.9432120
sample estimates:
      cor 
0.9015609 
```

```
# A tibble: 50 x 9
   country continent  year lifeExp    pop gdpPercap high_income europe
   <fct>   <fct>     <int>   <dbl>  <int>     <dbl> <chr>       <chr> 
 1 Colomb… Americas   2007    72.9 4.42e7     7007. not high i… not E…
 2 Tanzan… Africa     2007    52.5 3.81e7     1107. not high i… not E…
 3 Korea,… Asia       2007    67.3 2.33e7     1593. not high i… not E…
 4 Burundi Africa     2007    49.6 8.39e6      430. not high i… not E…
 5 Sudan   Africa     2007    58.6 4.23e7     2602. not high i… not E…
 6 Iraq    Asia       2007    59.5 2.75e7     4471. not high i… not E…
 7 Camero… Africa     2007    50.4 1.77e7     2042. not high i… not E…
 8 Comoros Africa     2007    65.2 7.11e5      986. not high i… not E…
 9 Slovak… Europe     2007    74.7 5.45e6    18678. high income Europe
10 Lebanon Asia       2007    72.0 3.92e6    10461. not high i… not E…
# … with 40 more rows, and 1 more variable: gdppercap_log10 <dbl>
```
…
---

class: split-40
count: false
.column[.content[

```r
*gm07_sample_50
```
]]
.column[.content[

```
# A tibble: 50 x 9
   country continent  year lifeExp    pop gdpPercap high_income europe
   <fct>   <fct>     <int>   <dbl>  <int>     <dbl> <chr>       <chr> 
 1 Colomb… Americas   2007    72.9 4.42e7     7007. not high i… not E…
 2 Tanzan… Africa     2007    52.5 3.81e7     1107. not high i… not E…
 3 Korea,… Asia       2007    67.3 2.33e7     1593. not high i… not E…
 4 Burundi Africa     2007    49.6 8.39e6      430. not high i… not E…
 5 Sudan   Africa     2007    58.6 4.23e7     2602. not high i… not E…
 6 Iraq    Asia       2007    59.5 2.75e7     4471. not high i… not E…
 7 Camero… Africa     2007    50.4 1.77e7     2042. not high i… not E…
 8 Comoros Africa     2007    65.2 7.11e5      986. not high i… not E…
 9 Slovak… Europe     2007    74.7 5.45e6    18678. high income Europe
10 Lebanon Asia       2007    72.0 3.92e6    10461. not high i… not E…
# … with 40 more rows, and 1 more variable: gdppercap_log10 <dbl>
```
…
---

class: split-40
count: false
.column[.content[

```r
* # the model itself
*gm07_sample_50
```
]]
.column[.content[

```
# A tibble: 50 x 9
   country continent  year lifeExp    pop gdpPercap high_income europe
   <fct>   <fct>     <int>   <dbl>  <int>     <dbl> <chr>       <chr> 
 1 Colomb… Americas   2007    72.9 4.42e7     7007. not high i… not E…
 2 Tanzan… Africa     2007    52.5 3.81e7     1107. not high i… not E…
 3 Korea,… Asia       2007    67.3 2.33e7     1593. not high i… not E…
 4 Burundi Africa     2007    49.6 8.39e6      430. not high i… not E…
 5 Sudan   Africa     2007    58.6 4.23e7     2602. not high i… not E…
 6 Iraq    Asia       2007    59.5 2.75e7     4471. not high i… not E…
 7 Camero… Africa     2007    50.4 1.77e7     2042. not high i… not E…
 8 Comoros Africa     2007    65.2 7.11e5      986. not high i… not E…
 9 Slovak… Europe     2007    74.7 5.45e6    18678. high income Europe
10 Lebanon Asia       2007    72.0 3.92e6    10461. not high i… not E…
# … with 40 more rows, and 1 more variable: gdppercap_log10 <dbl>
```
…
]]
---
class: split-40
count: false
.column[.content[

```r
library(magrittr)  
*gm07_sample_50
```
]]
.column[.content[

```
# A tibble: 50 x 9
   country continent  year lifeExp    pop gdpPercap high_income europe
   <fct>   <fct>     <int>   <dbl>  <int>     <dbl> <chr>       <chr> 
 1 Colomb… Americas   2007    72.9 4.42e7     7007. not high i… not E…
 2 Tanzan… Africa     2007    52.5 3.81e7     1107. not high i… not E…
 3 Korea,… Asia       2007    67.3 2.33e7     1593. not high i… not E…
 4 Burundi Africa     2007    49.6 8.39e6      430. not high i… not E…
 5 Sudan   Africa     2007    58.6 4.23e7     2602. not high i… not E…
 6 Iraq    Asia       2007    59.5 2.75e7     4471. not high i… not E…
 7 Camero… Africa     2007    50.4 1.77e7     2042. not high i… not E…
 8 Comoros Africa     2007    65.2 7.11e5      986. not high i… not E…
 9 Slovak… Europe     2007    74.7 5.45e6    18678. high income Europe
10 Lebanon Asia       2007    72.0 3.92e6    10461. not high i… not E…
# … with 40 more rows, and 1 more variable: gdppercap_log10 <dbl>
```
…
---

class: split-40
count: false
.column[.content[

```r
*gm07_sample_50
```
]]
.column[.content[

```
# A tibble: 50 x 9
   country continent  year lifeExp    pop gdpPercap high_income europe
   <fct>   <fct>     <int>   <dbl>  <int>     <dbl> <chr>       <chr> 
 1 Colomb… Americas   2007    72.9 4.42e7     7007. not high i… not E…
 2 Tanzan… Africa     2007    52.5 3.81e7     1107. not high i… not E…
 3 Korea,… Asia       2007    67.3 2.33e7     1593. not high i… not E…
 4 Burundi Africa     2007    49.6 8.39e6      430. not high i… not E…
 5 Sudan   Africa     2007    58.6 4.23e7     2602. not high i… not E…
 6 Iraq    Asia       2007    59.5 2.75e7     4471. not high i… not E…
 7 Camero… Africa     2007    50.4 1.77e7     2042. not high i… not E…
 8 Comoros Africa     2007    65.2 7.11e5      986. not high i… not E…
 9 Slovak… Europe     2007    74.7 5.45e6    18678. high income Europe
10 Lebanon Asia       2007    72.0 3.92e6    10461. not high i… not E…
# … with 40 more rows, and 1 more variable: gdppercap_log10 <dbl>
```
]]
---
class: split-40
count: false
.column[.content[

```r
gm07_sample_50 %>%  
* group_by(europe, high_income)
```
]]
.column[.content[

```
# A tibble: 50 x 9
# Groups:   europe, high_income [4]
   country continent  year lifeExp    pop gdpPercap high_income europe
   <fct>   <fct>     <int>   <dbl>  <int>     <dbl> <chr>       <chr> 
 1 Colomb… Americas   2007    72.9 4.42e7     7007. not high i… not E…
 2 Tanzan… Africa     2007    52.5 3.81e7     1107. not high i… not E…
 3 Korea,… Asia       2007    67.3 2.33e7     1593. not high i… not E…
 4 Burundi Africa     2007    49.6 8.39e6      430. not high i… not E…
 5 Sudan   Africa     2007    58.6 4.23e7     2602. not high i… not E…
 6 Iraq    Asia       2007    59.5 2.75e7     4471. not high i… not E…
 7 Camero… Africa     2007    50.4 1.77e7     2042. not high i… not E…
 8 Comoros Africa     2007    65.2 7.11e5      986. not high i… not E…
 9 Slovak… Europe     2007    74.7 5.45e6    18678. high income Europe
10 Lebanon Asia       2007    72.0 3.92e6    10461. not high i… not E…
# … with 40 more rows, and 1 more variable: gdppercap_log10 <dbl>
```
…
---

class: split-40
count: false
.column[.content[

```r
*gm07_sample_50
```
]]
.column[.content[

```
# A tibble: 50 x 9
   country continent  year lifeExp    pop gdpPercap high_income europe
   <fct>   <fct>     <int>   <dbl>  <int>     <dbl> <chr>       <chr> 
 1 Colomb… Americas   2007    72.9 4.42e7     7007. not high i… not E…
 2 Tanzan… Africa     2007    52.5 3.81e7     1107. not high i… not E…
 3 Korea,… Asia       2007    67.3 2.33e7     1593. not high i… not E…
 4 Burundi Africa     2007    49.6 8.39e6      430. not high i… not E…
 5 Sudan   Africa     2007    58.6 4.23e7     2602. not high i… not E…
 6 Iraq    Asia       2007    59.5 2.75e7     4471. not high i… not E…
 7 Camero… Africa     2007    50.4 1.77e7     2042. not high i… not E…
 8 Comoros Africa     2007    65.2 7.11e5      986. not high i… not E…
 9 Slovak… Europe     2007    74.7 5.45e6    18678. high income Europe
10 Lebanon Asia       2007    72.0 3.92e6    10461. not high i… not E…
# … with 40 more rows, and 1 more variable: gdppercap_log10 <dbl>
```
…
]]
---
class: split-40
count: false
.column[.content[

```r
library(magrittr)  
*gm07_sample_50
```
]]
.column[.content[

```
# A tibble: 50 x 9
   country continent  year lifeExp    pop gdpPercap high_income europe
   <fct>   <fct>     <int>   <dbl>  <int>     <dbl> <chr>       <chr> 
 1 Colomb… Americas   2007    72.9 4.42e7     7007. not high i… not E…
 2 Tanzan… Africa     2007    52.5 3.81e7     1107. not high i… not E…
 3 Korea,… Asia       2007    67.3 2.33e7     1593. not high i… not E…
 4 Burundi Africa     2007    49.6 8.39e6      430. not high i… not E…
 5 Sudan   Africa     2007    58.6 4.23e7     2602. not high i… not E…
 6 Iraq    Asia       2007    59.5 2.75e7     4471. not high i… not E…
 7 Camero… Africa     2007    50.4 1.77e7     2042. not high i… not E…
 8 Comoros Africa     2007    65.2 7.11e5      986. not high i… not E…
 9 Slovak… Europe     2007    74.7 5.45e6    18678. high income Europe
10 Lebanon Asia       2007    72.0 3.92e6    10461. not high i… not E…
# … with 40 more rows, and 1 more variable: gdppercap_log10 <dbl>
```
…
]]
---
class: split-40
count: false
.column[.content[

```r
library(magrittr)  
*gm07_sample_50
```
]]
.column[.content[

```
# A tibble: 50 x 9
   country continent  year lifeExp    pop gdpPercap high_income europe
   <fct>   <fct>     <int>   <dbl>  <int>     <dbl> <chr>       <chr> 
 1 Colomb… Americas   2007    72.9 4.42e7     7007. not high i… not E…
 2 Tanzan… Africa     2007    52.5 3.81e7     1107. not high i… not E…
 3 Korea,… Asia       2007    67.3 2.33e7     1593. not high i… not E…
 4 Burundi Africa     2007    49.6 8.39e6      430. not high i… not E…
 5 Sudan   Africa     2007    58.6 4.23e7     2602. not high i… not E…
 6 Iraq    Asia       2007    59.5 2.75e7     4471. not high i… not E…
 7 Camero… Africa     2007    50.4 1.77e7     2042. not high i… not E…
 8 Comoros Africa     2007    65.2 7.11e5      986. not high i… not E…
 9 Slovak… Europe     2007    74.7 5.45e6    18678. high income Europe
10 Lebanon Asia       2007    72.0 3.92e6    10461. not high i… not E…
# … with 40 more rows, and 1 more variable: gdppercap_log10 <dbl>
```
…
---

class: split-40
count: false
.column[.content[

```r
*gm07_sample_50
```
]]
.column[.content[

```
# A tibble: 50 x 9
   country continent  year lifeExp    pop gdpPercap high_income europe
   <fct>   <fct>     <int>   <dbl>  <int>     <dbl> <chr>       <chr> 
 1 Colomb… Americas   2007    72.9 4.42e7     7007. not high i… not E…
 2 Tanzan… Africa     2007    52.5 3.81e7     1107. not high i… not E…
 3 Korea,… Asia       2007    67.3 2.33e7     1593. not high i… not E…
 4 Burundi Africa     2007    49.6 8.39e6      430. not high i… not E…
 5 Sudan   Africa     2007    58.6 4.23e7     2602. not high i… not E…
 6 Iraq    Asia       2007    59.5 2.75e7     4471. not high i… not E…
 7 Camero… Africa     2007    50.4 1.77e7     2042. not high i… not E…
 8 Comoros Africa     2007    65.2 7.11e5      986. not high i… not E…
 9 Slovak… Europe     2007    74.7 5.45e6    18678. high income Europe
10 Lebanon Asia       2007    72.0 3.92e6    10461. not high i… not E…
# … with 40 more rows, and 1 more variable: gdppercap_log10 <dbl>
```
…
