Distributions
…
.panel1-dtpt-auto[

```r
set.seed(1256435)
library(tidyverse)
seq(-5, 5, .01) %>%
* tibble(x = .)
```
]
 
.panel2-dtpt-auto[

```
# A tibble: 1,001 x 1
       x
   <dbl>
 1 -5   
 2 -4.99
 3 -4.98
 4 -4.97
 5 -4.96
 6 -4.95
 7 -4.94
 8 -4.93
 9 -4.92
10 -4.91
# … with 991 more rows
```
…
.panel1-dtpt-auto[

```r
set.seed(1256435)
library(tidyverse)
seq(-5, 5, .01) %>%
  tibble(x = .) %>%
* mutate(dy = dt(x, df = 30))
```
]
 
.panel2-dtpt-auto[

```
# A tibble: 1,001 x 2
       x        dy
   <dbl>     <dbl>
 1 -5    0.0000329
 2 -4.99 0.0000338
 3 -4.98 0.0000348
 4 -4.97 0.0000358
 5 -4.96 0.0000368
 6 -4.95 0.0000379
 7 -4.94 0.0000389
 8 -4.93 0.0000401
 9 -4.92 0.0000412
10 -4.91 0.0000424
# … with 991 more rows
```
…
```r
set.seed(1256435)
library(tidyverse)
seq(-5, 5, .01) %>%
  tibble(x = .) %>%
  mutate(dy = dt(x, df = 30)) %>%
* mutate(py = pt(x, df = 30))
```
]
 
.panel2-dtpt-auto[

```
# A tibble: 1,001 x 3
       x        dy        py
   <dbl>     <dbl>     <dbl>
 1 -5    0.0000329 0.0000116
 2 -4.99 0.0000338 0.0000120
 3 -4.98 0.0000348 0.0000123
 4 -4.97 0.0000358 0.0000127
 5 -4.96 0.0000368 0.0000130
 6 -4.95 0.0000379 0.0000134
 7 -4.94 0.0000389 0.0000138
 8 -4.93 0.0000401 0.0000142
 9 -4.92 0.0000412 0.0000146
10 -4.91 0.0000424 0.0000150
# … with 991 more rows
```
…
```r
set.seed(1256435)
library(tidyverse)
seq(-5, 5, .01) %>%
  tibble(x = .) %>%
  mutate(dy = dt(x, df = 30)) %>%
  mutate(py = pt(x, df = 30)) %>%
* mutate(qy = qt(x, df = 30))
```
]
 
.panel2-dtpt-auto[

```
# A tibble: 1,001 x 4
       x        dy        py    qy
   <dbl>     <dbl>     <dbl> <dbl>
 1 -5    0.0000329 0.0000116   NaN
 2 -4.99 0.0000338 0.0000120   NaN
 3 -4.98 0.0000348 0.0000123   NaN
 4 -4.97 0.0000358 0.0000127   NaN
 5 -4.96 0.0000368 0.0000130   NaN
 6 -4.95 0.0000379 0.0000134   NaN
 7 -4.94 0.0000389 0.0000138   NaN
 8 -4.93 0.0000401 0.0000142   NaN
 9 -4.92 0.0000412 0.0000146   NaN
10 -4.91 0.0000424 0.0000150   NaN
# … with 991 more rows
```
…
