ECDF
…
.left-panel-ecdf_large-auto[

```r
set.seed(780)  
rnorm(200) %>%  
* tibble(var = .)
```
]
 
.right-panel-ecdf_large-auto[

```
# A tibble: 200 x 1
        var
      <dbl>
 1 -1.65   
 2 -0.899  
 3  0.00564
 4 -0.456  
 5  2.12   
 6  0.101  
 7 -1.87   
 8  0.970  
 9 -0.830  
10  0.934  
# … with 190 more rows
```
…
.left-panel-ecdf_large-auto[

```r
set.seed(780)  
rnorm(200) %>%  
  tibble(var = .) %>%  
* arrange(var)
```
]
 
.right-panel-ecdf_large-auto[

```
# A tibble: 200 x 1
     var
   <dbl>
 1 -2.81
 2 -2.34
 3 -1.88
 4 -1.87
 5 -1.80
 6 -1.80
 7 -1.74
 8 -1.71
 9 -1.65
10 -1.62
# … with 190 more rows
```
…
.left-panel-ecdf_large-auto[

```r
set.seed(780)  
rnorm(200) %>%  
  tibble(var = .) %>%  
  arrange(var) %>%  
* mutate(index = 1:n())
```
]
 
.right-panel-ecdf_large-auto[

```
# A tibble: 200 x 2
     var index
   <dbl> <int>
 1 -2.81     1
 2 -2.34     2
 3 -1.88     3
 4 -1.87     4
 5 -1.80     5
 6 -1.80     6
 7 -1.74     7
 8 -1.71     8
 9 -1.65     9
10 -1.62    10
# … with 190 more rows
```
…
