Pvalue
…
.column[.content[

```r
library(tidyverse)  
*tibble(which_trial = 1:num_trials,
*      num_correct)
```
]]
.column[.content[

```
# A tibble: 100 x 2
   which_trial num_correct
         <int>       <int>
 1           1           6
 2           2           6
 3           3           6
 4           4           6
 5           5           4
 6           6           2
 7           7           4
 8           8           2
 9           9           4
10          10           8
# … with 90 more rows
```
…
.column[.content[

```r
library(tidyverse)  
tibble(which_trial = 1:num_trials,  
       num_correct) ->  
guessing_results  

*guessing_results
```
]]
.column[.content[

```
# A tibble: 100 x 2
   which_trial num_correct
         <int>       <int>
 1           1           6
 2           2           6
 3           3           6
 4           4           6
 5           5           4
 6           6           2
 7           7           4
 8           8           2
 9           9           4
10          10           8
# … with 90 more rows
```
…
```r
library(tidyverse)  
tibble(which_trial = 1:num_trials,  
       num_correct) ->  
guessing_results  

guessing_results %>%  
* group_by(num_correct)
```
]]
.column[.content[

```
# A tibble: 100 x 2
# Groups:   num_correct [5]
   which_trial num_correct
         <int>       <int>
 1           1           6
 2           2           6
 3           3           6
 4           4           6
 5           5           4
 6           6           2
 7           7           4
 8           8           2
 9           9           4
10          10           8
# … with 90 more rows
```
…
