Cool with statistical independence
…
```r
*library(tidyverse)
*set.seed(98735)
*tibble(tail_length = rnorm(n = 50),
*      brain_weight = rnorm(n = 50)) ->
*my_data; my_data
```
]]
.column[.content[

```
# A tibble: 50 x 2
   tail_length brain_weight
         <dbl>        <dbl>
 1      -1.64       -0.530 
 2      -0.107      -0.744 
 3       0.185       0.476 
 4       1.36        1.32  
 5       0.210      -0.0852
 6      -0.658      -1.36  
 7       1.53       -1.18  
 8       1.40       -0.867 
 9       1.54        0.115 
10       0.131       0.960 
# … with 40 more rows
```
…
```
# A tibble: 50 x 2
   tail_length brain_weight
         <dbl>        <dbl>
 1      -1.64       -0.530 
 2      -0.107      -0.744 
 3       0.185       0.476 
 4       1.36        1.32  
 5       0.210      -0.0852
 6      -0.658      -1.36  
 7       1.53       -1.18  
 8       1.40       -0.867 
 9       1.54        0.115 
10       0.131       0.960 
# … with 40 more rows
```
…
```
# A tibble: 50 x 2
   tail_length brain_weight
         <dbl>        <dbl>
 1      -1.64       -0.530 
 2      -0.107      -0.744 
 3       0.185       0.476 
 4       1.36        1.32  
 5       0.210      -0.0852
 6      -0.658      -1.36  
 7       1.53       -1.18  
 8       1.40       -0.867 
 9       1.54        0.115 
10       0.131       0.960 
# … with 40 more rows
```
…
```
# A tibble: 50 x 2
   tail_length brain_weight
         <dbl>        <dbl>
 1       1.14        0.271 
 2       0.252       0.359 
 3       1.27        0.704 
 4      -0.332      -3.60  
 5      -0.555       0.0577
 6       0.632      -0.812 
 7       0.202      -0.206 
 8      -0.819      -0.866 
 9       1.08        0.319 
10       0.403      -1.62  
# … with 40 more rows
```
…
```
# A tibble: 50 x 2
   tail_length brain_weight
         <dbl>        <dbl>
 1      0.555        0.689 
 2      1.37         0.408 
 3     -1.20         0.0598
 4     -0.824        0.0650
 5      0.398        0.109 
 6     -0.713       -0.918 
 7      0.267        0.293 
 8      0.0750       0.308 
 9      0.231       -0.183 
10     -0.837        0.868 
# … with 40 more rows
```
…
```
# A tibble: 50 x 2
   tail_length brain_weight
         <dbl>        <dbl>
 1     -1.93          0.591
 2      1.37          1.60 
 3     -0.728         0.625
 4     -0.0645       -0.812
 5      0.297        -0.337
 6     -0.912        -1.63 
 7     -1.13         -1.09 
 8     -2.04         -0.756
 9     -1.32          1.28 
10      0.409         2.17 
# … with 40 more rows
```
…
```
# A tibble: 50 x 2
   tail_length brain_weight
         <dbl>        <dbl>
 1      -0.231      0.291  
 2      -0.575      0.113  
 3       0.251     -1.28   
 4      -1.38      -3.90   
 5       0.129      0.405  
 6       0.677     -1.29   
 7      -0.532     -1.13   
 8      -0.699     -0.00250
 9      -1.51      -0.845  
10       0.992     -0.560  
# … with 40 more rows
```
…
```
# A tibble: 50 x 2
   tail_length brain_weight
         <dbl>        <dbl>
 1     -1.25          0.429
 2      0.754         0.143
 3     -0.0323       -0.173
 4      0.353        -0.931
 5      0.872         0.226
 6     -0.963         0.293
 7      0.178         0.890
 8      0.694        -2.32 
 9     -0.717         0.470
10      0.866        -1.29 
# … with 40 more rows
```
…
```
# A tibble: 50 x 2
   tail_length brain_weight
         <dbl>        <dbl>
 1      -0.390       0.383 
 2      -0.577       2.63  
 3       0.639       0.0420
 4      -0.921       0.0238
 5      -0.195       1.01  
 6       0.934       0.209 
 7      -1.55        0.261 
 8      -1.05        1.04  
 9       1.32        0.478 
10      -1.74       -1.21  
# … with 40 more rows
```
…
```
# A tibble: 50 x 2
   tail_length brain_weight
         <dbl>        <dbl>
 1      -1.29        1.83  
 2      -0.538      -0.658 
 3      -0.439       0.410 
 4       0.884       0.383 
 5      -0.826       0.593 
 6      -0.645      -0.643 
 7      -0.277       0.526 
 8       1.33       -0.0301
 9      -1.26        2.05  
10      -0.329      -1.18  
# … with 40 more rows
```
…
```
# A tibble: 50 x 2
   tail_length brain_weight
         <dbl>        <dbl>
 1     1.73          -0.403
 2     0.769          0.460
 3     0.625         -1.42 
 4     0.251          0.940
 5    -0.139         -0.347
 6     1.85          -1.04 
 7    -0.538          0.448
 8     1.14           0.727
 9    -0.00658       -2.39 
10     0.226          0.783
# … with 40 more rows
```
…
```
# A tibble: 50 x 2
   tail_length brain_weight
         <dbl>        <dbl>
 1     -1.36         0.237 
 2     -0.674       -1.29  
 3      0.820        0.439 
 4      0.126       -1.36  
 5      0.531       -0.706 
 6     -0.255       -0.168 
 7      0.620       -0.152 
 8      0.0415      -0.0826
 9      0.977       -1.27  
10      1.88         1.38  
# … with 40 more rows
```
…
```
# A tibble: 50 x 2
   tail_length brain_weight
         <dbl>        <dbl>
 1     -0.785        0.111 
 2      0.674        1.56  
 3      0.0216       0.976 
 4      0.223        1.04  
 5     -0.575       -0.0359
 6      0.796       -1.27  
 7     -2.24        -0.921 
 8      0.817        1.73  
 9     -2.11         2.84  
10      0.453       -1.24  
# … with 40 more rows
```
…
```
# A tibble: 50 x 2
   tail_length brain_weight
         <dbl>        <dbl>
 1      0.631      -0.544  
 2      0.236      -1.47   
 3     -0.583       1.90   
 4     -0.148      -0.00957
 5     -0.616       1.11   
 6      1.08       -1.39   
 7      0.325       0.557  
 8     -1.24        0.323  
 9     -0.0400     -0.637  
10     -0.726       1.64   
# … with 40 more rows
```
…
```
# A tibble: 50 x 2
   tail_length brain_weight
         <dbl>        <dbl>
 1      -0.470      -0.470 
 2      -1.46       -0.600 
 3      -0.134      -0.0555
 4      -1.39        0.183 
 5       0.874      -1.34  
 6      -1.12       -1.46  
 7      -0.208       1.53  
 8      -1.01       -0.175 
 9      -0.209       0.402 
10      -0.222      -0.242 
# … with 40 more rows
```
…
```
# A tibble: 50 x 2
   tail_length brain_weight
         <dbl>        <dbl>
 1     -1.55        1.33   
 2      0.320       0.882  
 3     -0.0949      0.483  
 4      0.756      -1.69   
 5      0.804      -0.390  
 6     -0.251       1.00   
 7     -1.86        0.358  
 8      1.06       -0.00587
 9      0.912      -0.265  
10     -2.25       -0.117  
# … with 40 more rows
```
…
```
# A tibble: 50 x 2
   tail_length brain_weight
         <dbl>        <dbl>
 1      -0.491       0.554 
 2      -0.351      -0.724 
 3       0.995      -0.559 
 4      -1.80        0.949 
 5      -0.798       0.337 
 6       0.582      -0.0307
 7      -0.415      -0.574 
 8      -1.07        1.24  
 9       1.13       -0.163 
10      -0.788       0.201 
# … with 40 more rows
```
…
```
# A tibble: 50 x 2
   tail_length brain_weight
         <dbl>        <dbl>
 1      -0.745       0.0542
 2      -0.625      -0.667 
 3       0.343      -0.405 
 4      -0.672       1.08  
 5       0.631      -0.909 
 6      -0.312      -0.718 
 7       0.796      -0.437 
 8       0.712       0.141 
 9      -1.28        0.238 
10       0.181       0.0345
# … with 40 more rows
```
…
```
# A tibble: 50 x 2
   tail_length brain_weight
         <dbl>        <dbl>
 1      -1.24         0.123
 2      -1.61         0.382
 3       0.511        0.507
 4      -0.593        0.637
 5      -1.15        -0.474
 6       0.228        1.22 
 7      -0.232       -0.509
 8      -0.102       -0.244
 9       0.367       -1.80 
10      -0.300        0.101
# … with 40 more rows
```
…
```
# A tibble: 50 x 2
   tail_length brain_weight
         <dbl>        <dbl>
 1       1.33         1.17 
 2       1.09         0.724
 3      -0.651       -1.40 
 4      -1.05         1.61 
 5      -0.334       -1.50 
 6      -0.216       -2.62 
 7       0.839       -0.204
 8      -1.34         2.19 
 9      -0.578        0.490
10      -1.42        -0.466
# … with 40 more rows
```
…
```
# A tibble: 50 x 2
   tail_length brain_weight
         <dbl>        <dbl>
 1     -2.18          0.751
 2     -0.254         0.185
 3     -0.484         0.471
 4      0.742        -0.597
 5      1.45          0.672
 6      1.56          1.18 
 7      1.34          2.17 
 8      2.67         -0.410
 9      0.877         0.266
10      0.0153        1.09 
# … with 40 more rows
```
…
```
# A tibble: 50 x 2
   tail_length brain_weight
         <dbl>        <dbl>
 1      -0.145       -0.873
 2       2.29         0.622
 3      -1.47        -0.162
 4      -0.285       -1.73 
 5      -0.598       -0.736
 6       0.782        0.662
 7       0.102       -0.312
 8       0.970       -1.42 
 9       0.422        0.370
10      -1.24         2.63 
# … with 40 more rows
```
…
```
# A tibble: 50 x 2
   tail_length brain_weight
         <dbl>        <dbl>
 1     -0.0717      -0.736 
 2      0.724        0.141 
 3     -0.562       -1.57  
 4     -0.189        0.808 
 5      0.957       -0.553 
 6     -0.489       -0.244 
 7      1.09         0.141 
 8      0.437       -0.872 
 9     -0.0162       0.0422
10     -2.04        -0.420 
# … with 40 more rows
```
…
```
# A tibble: 50 x 2
   sex    height
   <chr>   <dbl>
 1 female   6.05
 2 female   5.76
 3 female   5.18
 4 female   4.40
 5 female   4.66
 6 male     6.07
 7 female   6.66
 8 female   5.78
 9 female   6.39
10 male     5.47
# … with 40 more rows
```
…
```
# A tibble: 50 x 2
   sex    height
   <chr>   <dbl>
 1 female   4.80
 2 male     5.75
 3 male     5.35
 4 female   5.43
 5 male     5.07
 6 male     5.88
 7 male     5.00
 8 female   4.07
 9 male     5.83
10 female   6.18
# … with 40 more rows
```
…
```
# A tibble: 50 x 2
   sex    height
   <chr>   <dbl>
 1 female   5.00
 2 female   5.09
 3 female   5.05
 4 female   5.11
 5 male     4.95
 6 male     5.83
 7 female   5.28
 8 female   5.16
 9 male     5.42
10 male     5.52
# … with 40 more rows
```
…
```
# A tibble: 50 x 2
   sex    height
   <chr>   <dbl>
 1 female   6.40
 2 male     5.95
 3 male     6.93
 4 female   5.58
 5 female   5.68
 6 female   5.46
 7 female   5.37
 8 male     5.43
 9 male     5.86
10 female   5.05
# … with 40 more rows
```
…
```
# A tibble: 50 x 2
   sex    height
   <chr>   <dbl>
 1 female   5.04
 2 female   5.91
 3 male     5.05
 4 female   6.51
 5 male     5.42
 6 male     5.58
 7 female   5.67
 8 female   5.10
 9 male     5.68
10 female   5.52
# … with 40 more rows
```
…
```
# A tibble: 50 x 2
   sex    height
   <chr>   <dbl>
 1 male     5.84
 2 male     6.31
 3 female   5.65
 4 male     5.29
 5 male     5.80
 6 male     5.84
 7 female   5.72
 8 male     5.46
 9 female   5.50
10 male     5.72
# … with 40 more rows
```
…
```
# A tibble: 50 x 2
   sex    height
   <chr>   <dbl>
 1 male     5.01
 2 female   5.68
 3 female   5.44
 4 female   5.10
 5 female   5.81
 6 male     5.19
 7 male     5.12
 8 male     6.21
 9 male     5.56
10 male     5.26
# … with 40 more rows
```
…
```
# A tibble: 50 x 2
   sex    height
   <chr>   <dbl>
 1 female   5.66
 2 female   5.72
 3 female   5.63
 4 female   5.48
 5 male     5.47
 6 male     5.89
 7 male     6.00
 8 female   5.57
 9 male     5.41
10 male     4.77
# … with 40 more rows
```
…
```
# A tibble: 50 x 2
   sex    height
   <chr>   <dbl>
 1 female   4.23
 2 male     5.99
 3 male     5.43
 4 female   5.40
 5 male     6.16
 6 male     5.97
 7 female   5.78
 8 female   6.03
 9 female   5.52
10 female   5.15
# … with 40 more rows
```
…
```
# A tibble: 50 x 2
   sex    height
   <chr>   <dbl>
 1 female   6.20
 2 male     5.04
 3 female   5.22
 4 female   5.69
 5 female   5.97
 6 female   5.64
 7 male     5.48
 8 female   5.64
 9 male     5.33
10 female   5.83
# … with 40 more rows
```
…
```
# A tibble: 50 x 2
   sex    height
   <chr>   <dbl>
 1 female   5.02
 2 male     6.63
 3 male     5.35
 4 male     5.46
 5 male     5.53
 6 female   5.55
 7 male     6.33
 8 female   5.02
 9 male     5.49
10 male     6.09
# … with 40 more rows
```
…
```
# A tibble: 50 x 2
   sex    height
   <chr>   <dbl>
 1 female   5.47
 2 female   5.71
 3 male     6.34
 4 male     5.81
 5 male     4.99
 6 female   4.89
 7 female   6.02
 8 male     5.77
 9 male     5.47
10 male     5.42
# … with 40 more rows
```
…
```
# A tibble: 50 x 2
   sex    height
   <chr>   <dbl>
 1 female   5.76
 2 female   4.89
 3 female   5.64
 4 male     5.47
 5 female   6.03
 6 male     6.47
 7 female   5.97
 8 female   5.50
 9 male     6.20
10 male     5.62
# … with 40 more rows
```
…
```
# A tibble: 50 x 2
   sex    height
   <chr>   <dbl>
 1 male     5.74
 2 female   4.58
 3 male     5.47
 4 male     5.26
 5 male     5.01
 6 male     4.95
 7 female   5.86
 8 male     5.98
 9 female   5.51
10 male     6.12
# … with 40 more rows
```
…
```
# A tibble: 50 x 2
   sex    height
   <chr>   <dbl>
 1 male     4.97
 2 male     5.02
 3 female   4.54
 4 female   5.16
 5 female   4.75
 6 female   5.71
 7 male     5.69
 8 male     6.76
 9 male     5.10
10 male     5.73
# … with 40 more rows
```
…
```
# A tibble: 50 x 2
   sex    height
   <chr>   <dbl>
 1 female   5.11
 2 male     6.06
 3 female   5.21
 4 female   4.66
 5 male     5.61
 6 male     5.05
 7 male     5.36
 8 male     5.47
 9 male     5.43
10 male     5.42
# … with 40 more rows
```
…
```
# A tibble: 50 x 2
   sex    height
   <chr>   <dbl>
 1 male     6.16
 2 female   5.33
 3 male     6.05
 4 female   5.52
 5 female   5.36
 6 male     4.47
 7 male     5.40
 8 female   5.78
 9 female   5.38
10 male     4.96
# … with 40 more rows
```
…
```
# A tibble: 50 x 2
   sex    height
   <chr>   <dbl>
 1 male     5.36
 2 male     4.54
 3 male     5.56
 4 male     5.19
 5 female   5.13
 6 male     5.08
 7 male     6.45
 8 male     4.87
 9 male     4.93
10 female   5.59
# … with 40 more rows
```
…
```
# A tibble: 50 x 2
   sex    height
   <chr>   <dbl>
 1 male     5.44
 2 male     5.01
 3 female   5.36
 4 female   5.22
 5 female   5.10
 6 female   5.04
 7 female   6.61
 8 male     6.52
 9 female   5.36
10 female   5.35
# … with 40 more rows
```
…
```
# A tibble: 50 x 2
   sex    height
   <chr>   <dbl>
 1 female   5.18
 2 female   5.06
 3 male     5.97
 4 male     4.80
 5 female   5.91
 6 male     5.65
 7 male     4.61
 8 female   5.30
 9 female   5.17
10 female   5.36
# … with 40 more rows
```
…
```
# A tibble: 50 x 2
   sex    height
   <chr>   <dbl>
 1 2nd    0.0646
 2 3rd   -0.280 
 3 3rd    1.01  
 4 2nd    1.21  
 5 3rd    0.358 
 6 1st    0.483 
 7 2nd    0.420 
 8 Crew   0.739 
 9 3rd   -1.01  
10 3rd    0.688 
# … with 40 more rows
```
…
```
# A tibble: 50 x 2
   sex   height
   <chr>  <dbl>
 1 Crew   0.184
 2 2nd   -0.549
 3 Crew   1.10 
 4 1st   -1.08 
 5 Crew  -0.236
 6 3rd    0.260
 7 2nd    0.336
 8 Crew   1.44 
 9 2nd    0.860
10 1st   -1.20 
# … with 40 more rows
```
…
```
# A tibble: 50 x 2
   sex    height
   <chr>   <dbl>
 1 Crew  -1.79  
 2 Crew  -0.276 
 3 2nd    0.341 
 4 3rd    1.48  
 5 3rd   -0.942 
 6 3rd   -2.00  
 7 2nd   -0.0154
 8 2nd    0.243 
 9 Crew   0.127 
10 Crew   0.291 
# … with 40 more rows
```
…
```
# A tibble: 50 x 2
   sex   height
   <chr>  <dbl>
 1 3rd    1.00 
 2 3rd    0.506
 3 2nd    0.321
 4 3rd   -1.49 
 5 Crew   0.676
 6 Crew  -0.890
 7 3rd   -0.247
 8 2nd    0.278
 9 3rd    0.299
10 2nd    0.243
# … with 40 more rows
```
…
```
# A tibble: 50 x 2
   sex    height
   <chr>   <dbl>
 1 1st   -0.508 
 2 3rd   -0.794 
 3 2nd    0.469 
 4 2nd   -1.14  
 5 Crew   0.975 
 6 2nd    0.762 
 7 3rd   -1.69  
 8 Crew   0.0958
 9 Crew  -1.93  
10 3rd    0.190 
# … with 40 more rows
```
…
```
# A tibble: 50 x 2
   sex   height
   <chr>  <dbl>
 1 2nd   -0.569
 2 2nd    0.361
 3 1st   -0.292
 4 Crew  -0.483
 5 2nd   -0.160
 6 3rd    1.58 
 7 2nd    0.301
 8 3rd    0.224
 9 2nd   -0.427
10 2nd   -0.445
# … with 40 more rows
```
…
```
# A tibble: 50 x 2
   sex    height
   <chr>   <dbl>
 1 Crew  -0.0726
 2 3rd   -1.14  
 3 1st    0.540 
 4 3rd    0.0692
 5 1st   -0.481 
 6 3rd    1.32  
 7 2nd    0.153 
 8 3rd    0.197 
 9 2nd    0.120 
10 2nd   -0.0825
# … with 40 more rows
```
…
```
# A tibble: 50 x 2
   sex   height
   <chr>  <dbl>
 1 Crew  -0.264
 2 2nd   -0.280
 3 1st   -0.191
 4 3rd   -0.154
 5 3rd   -0.902
 6 3rd   -1.61 
 7 3rd   -1.01 
 8 2nd    0.315
 9 3rd    0.762
10 1st    0.612
# … with 40 more rows
```
…
```
# A tibble: 50 x 2
   sex    height
   <chr>   <dbl>
 1 Crew  -0.178 
 2 1st    0.332 
 3 3rd   -0.350 
 4 1st   -0.0232
 5 1st   -0.731 
 6 Crew  -1.50  
 7 2nd   -1.15  
 8 3rd    0.671 
 9 1st   -1.18  
10 3rd    0.281 
# … with 40 more rows
```
…
```
# A tibble: 50 x 2
   sex    height
   <chr>   <dbl>
 1 Crew  -0.709 
 2 3rd    1.27  
 3 Crew  -1.57  
 4 2nd   -0.763 
 5 1st   -0.0208
 6 1st   -0.784 
 7 3rd    0.644 
 8 3rd    1.23  
 9 2nd    0.224 
10 Crew   0.623 
# … with 40 more rows
```
…
```
# A tibble: 50 x 2
   sex   height
   <chr>  <dbl>
 1 Crew  -1.17 
 2 1st    2.08 
 3 3rd   -0.628
 4 1st   -0.872
 5 3rd    0.537
 6 1st   -2.35 
 7 3rd    1.02 
 8 2nd   -1.97 
 9 Crew   1.31 
10 1st    0.931
# … with 40 more rows
```
…
```
# A tibble: 50 x 2
   sex    height
   <chr>   <dbl>
 1 Crew   0.433 
 2 2nd   -0.0234
 3 2nd   -1.69  
 4 1st    0.0612
 5 1st    0.266 
 6 1st   -0.403 
 7 3rd   -0.762 
 8 Crew  -1.09  
 9 3rd   -0.0799
10 1st   -0.412 
# … with 40 more rows
```
…
```
# A tibble: 50 x 2
   sex    height
   <chr>   <dbl>
 1 2nd   -0.793 
 2 3rd    0.574 
 3 1st    0.479 
 4 3rd   -1.03  
 5 Crew   0.484 
 6 2nd    0.562 
 7 1st   -0.0160
 8 3rd    2.51  
 9 1st    0.0715
10 3rd    1.17  
# … with 40 more rows
```
…
```
# A tibble: 50 x 2
   sex   height
   <chr>  <dbl>
 1 Crew   0.689
 2 Crew   1.05 
 3 2nd    0.769
 4 1st    0.302
 5 3rd    1.17 
 6 Crew   0.616
 7 3rd    0.435
 8 2nd   -0.143
 9 1st    1.10 
10 3rd    1.72 
# … with 40 more rows
```
…
```
# A tibble: 50 x 2
   sex    height
   <chr>   <dbl>
 1 2nd    1.03  
 2 1st   -0.306 
 3 3rd    0.939 
 4 3rd    1.04  
 5 2nd   -0.974 
 6 1st    0.0136
 7 Crew   0.117 
 8 1st    1.13  
 9 Crew  -0.444 
10 1st    0.0134
# … with 40 more rows
```
…
```
# A tibble: 50 x 2
   sex    height
   <chr>   <dbl>
 1 2nd   -0.868 
 2 1st   -1.10  
 3 Crew  -0.887 
 4 3rd   -0.274 
 5 2nd   -2.02  
 6 1st   -1.20  
 7 3rd   -0.0952
 8 Crew   1.77  
 9 2nd    0.518 
10 2nd    0.373 
# … with 40 more rows
```
…
```
# A tibble: 50 x 2
   sex   height
   <chr>  <dbl>
 1 1st    1.24 
 2 3rd   -2.13 
 3 2nd    1.14 
 4 Crew  -0.408
 5 3rd   -0.528
 6 3rd    0.415
 7 1st   -0.142
 8 Crew  -0.286
 9 1st    0.114
10 1st   -1.34 
# … with 40 more rows
```
…
```
# A tibble: 50 x 2
   sex    height
   <chr>   <dbl>
 1 Crew   0.610 
 2 Crew   0.110 
 3 1st   -1.97  
 4 1st    0.0303
 5 3rd   -0.793 
 6 2nd   -1.08  
 7 Crew  -0.413 
 8 1st   -1.92  
 9 Crew  -0.307 
10 3rd   -0.426 
# … with 40 more rows
```
…
```
# A tibble: 50 x 2
   sex    height
   <chr>   <dbl>
 1 2nd   -0.768 
 2 1st   -0.901 
 3 Crew  -0.449 
 4 3rd   -0.306 
 5 3rd   -1.12  
 6 2nd   -0.625 
 7 3rd    0.0779
 8 Crew   0.0111
 9 2nd   -0.747 
10 2nd   -0.825 
# … with 40 more rows
```
…
```
# A tibble: 50 x 2
   sex   height
   <chr>  <dbl>
 1 2nd    0.233
 2 2nd   -0.927
 3 1st    0.840
 4 1st    0.101
 5 1st   -0.175
 6 3rd   -0.687
 7 1st   -2.54 
 8 3rd   -2.06 
 9 3rd    0.858
10 2nd    0.351
# … with 40 more rows
```
…
```
# A tibble: 100 x 2
   sex    handed
   <chr>  <chr> 
 1 female right 
 2 female left  
 3 male   right 
 4 male   right 
 5 female right 
 6 female right 
 7 male   right 
 8 male   right 
 9 female right 
10 female left  
# … with 90 more rows
```
…
```
# A tibble: 100 x 2
   sex    handed
   <chr>  <chr> 
 1 male   right 
 2 male   right 
 3 female right 
 4 male   right 
 5 male   right 
 6 male   right 
 7 male   right 
 8 male   left  
 9 male   left  
10 female right 
# … with 90 more rows
```
…
```
# A tibble: 100 x 2
   sex    handed
   <chr>  <chr> 
 1 female right 
 2 female left  
 3 male   right 
 4 male   right 
 5 male   right 
 6 male   right 
 7 male   right 
 8 male   left  
 9 male   right 
10 male   left  
# … with 90 more rows
```
…
